<?xml version="1.0" encoding="UTF-8"?>
<map version="1.0" orientation="orthogonal" renderorder="right-down" width="150" height="17" tilewidth="64" tileheight="64" nextobjectid="15">
 <properties>
  <property name="fullscreen" type="bool" value="false"/>
  <property name="screenheight" type="int" value="1080"/>
  <property name="screenwidth" type="int" value="1920"/>
  <property name="setFPS" type="int" value="60"/>
  <property name="vSync" type="bool" value="true"/>
 </properties>
 <tileset firstgid="1" name="player" tilewidth="64" tileheight="128" tilecount="1" columns="1">
  <image source="player.png" width="64" height="128"/>
 </tileset>
 <tileset firstgid="2" name="tileset" tilewidth="64" tileheight="64" tilecount="64" columns="8">
  <image source="graphics/tileset.png" width="512" height="512"/>
 </tileset>
 <tileset firstgid="66" name="3840_px_bg_2_areas" tilewidth="64" tileheight="64" tilecount="960" columns="60">
  <image source="backgrounds/3840_px_bg_2_areas.png" width="3840" height="1080"/>
 </tileset>
 <tileset firstgid="1026" name="backgroundtiles" tilewidth="64" tileheight="64" tilecount="104" columns="13">
  <image source="graphics/backgroundtiles.png" width="832" height="512"/>
 </tileset>
 <tileset firstgid="1130" name="throne room" tilewidth="64" tileheight="64" tilecount="480" columns="30">
  <image source="backgrounds/throne room.png" width="1920" height="1080"/>
 </tileset>
 <tileset firstgid="1610" name="background_wall" tilewidth="64" tileheight="64" tilecount="480" columns="30">
  <image source="backgrounds/background_wall.png" width="1920" height="1080"/>
 </tileset>
 <layer name="background" width="150" height="17">
  <data encoding="csv">
1881,1882,1883,1884,1885,1886,1887,1880,1881,1882,1883,1884,1885,1886,1887,1880,1881,1882,1883,1884,1885,1886,1887,1880,1881,1882,1883,1884,1885,1886,1887,1880,1881,1882,1883,1884,1885,1886,1887,1880,1881,1882,1883,1884,1885,1886,1887,1880,1881,1882,1883,1884,1885,1880,1881,1882,1883,1884,1885,1886,1887,0,0,0,0,0,0,0,0,0,0,0,0,0,0,0,0,0,0,0,0,0,0,0,0,0,0,0,1880,1881,1882,1883,1884,1885,1886,1887,1880,1881,1882,1883,1884,1885,1886,1887,1880,1881,1882,1883,1884,1885,1886,1887,1880,1881,1882,1883,1884,1885,1886,1887,1880,1881,1882,1883,1884,1885,1886,1887,1880,1881,1882,1883,1884,1885,1886,1887,1880,1881,1882,1883,1884,1885,1886,1887,1880,1881,1882,1883,1884,1885,
1911,1912,1913,1914,1915,1916,1917,1910,1911,1912,1913,1914,1915,1916,1917,1910,1911,1912,1913,1914,1915,1916,1917,1910,1911,1912,1913,1914,1915,1916,1917,1910,1911,1912,1913,1914,1915,1916,1917,1910,1911,1912,1913,1914,1915,1916,1917,1910,1911,1912,1913,1914,1915,1910,1911,1912,1913,1914,1915,1916,1917,1130,1131,1132,1133,1134,1135,1136,1137,1138,1139,1140,1142,1143,1144,1145,1146,1147,1148,1149,1150,1151,1152,1153,1154,1155,1156,1157,1910,1911,1912,1913,1914,1915,1916,1917,1910,1911,1912,1913,1914,1915,1916,1917,1910,1911,1912,1913,1914,1915,1916,1917,1910,1911,1912,1913,1914,1915,1916,1917,1910,1911,1912,1913,1914,1915,1916,1917,1910,1911,1912,1913,1914,1915,1916,1917,1910,1911,1912,1913,1914,1915,1916,1917,1910,1911,1912,1913,1914,1915,
1941,1942,1943,1944,1945,1946,1947,1940,1941,1942,1943,1944,1945,1946,1947,1940,1941,1942,1943,1944,1945,1946,1947,1940,1941,1942,1943,1944,1945,1946,1947,1940,1941,1942,1943,1944,1945,1946,1947,1940,1941,1942,1943,1944,1945,1946,1947,1940,1941,1942,1943,1944,1945,1940,1941,1942,1943,1944,1945,1946,1947,1160,1161,1162,1163,1164,1165,1166,1167,1168,1169,1170,1172,1173,1174,1175,1176,1177,1178,1179,1180,1181,1182,1183,1184,1185,1186,1187,1940,1941,1942,1943,1944,1945,1946,1947,1940,1941,1942,1943,1944,1945,1946,1947,1940,1941,1942,1943,1944,1945,1946,1947,1940,1941,1942,1943,1944,1945,1946,1947,1940,1941,1942,1943,1944,1945,1946,1947,1940,1941,1942,1943,1944,1945,1946,1947,1940,1941,1942,1943,1944,1945,1946,1947,1940,1941,1942,1943,1944,1945,
1971,1972,1973,1974,1975,1976,1977,1970,1971,1972,1973,1974,1975,1976,1977,1970,1971,1972,1973,1974,1975,1976,1977,1970,1971,1972,1973,1974,1975,1976,1977,1970,1971,1972,1973,1974,1975,1976,1977,1970,1971,1972,1973,1974,1975,1976,1977,1970,1971,1972,1973,1974,1975,1970,1971,1972,1973,1974,1975,1976,1977,1190,1191,1192,1193,1194,1195,1196,1197,1198,1199,1200,1202,1203,1204,1205,1206,1207,1208,1209,1210,1211,1212,1213,1214,1215,1216,1217,1970,1971,1972,1973,1974,1975,1976,1977,1970,1971,1972,1973,1974,1975,1976,1977,1970,1971,1972,1973,1974,1975,1976,1977,1970,1971,1972,1973,1974,1975,1976,1977,1970,1971,1972,1973,1974,1975,1976,1977,1970,1971,1972,1973,1974,1975,1976,1977,1970,1971,1972,1973,1974,1975,1976,1977,1970,1971,1972,1973,1974,1975,
1822,1823,1824,1825,1826,1827,1821,1822,1823,1824,1825,1826,1827,1820,1821,1822,1823,1824,1825,1826,1827,1820,1821,1822,1823,1824,1825,1826,1827,1820,1821,1822,1823,1824,1825,1826,1827,1820,1821,1822,1823,1824,1825,1826,1827,1820,1821,1822,1823,1824,1825,1826,1827,1820,1821,1822,1823,1824,1825,1826,1827,1220,1221,1222,1223,1224,1225,1226,1227,1228,1229,1230,1232,1233,1234,1235,1236,1237,1238,1239,1240,1241,1242,1243,1244,1245,1246,1247,1248,1249,1820,1821,1822,1823,1824,1825,1826,1827,1824,1825,1826,1827,1820,1821,1822,1823,1824,1825,1826,1827,1820,1821,1822,1823,1824,1825,1826,1827,1820,1821,1822,1823,1824,1825,1826,1827,1820,1821,1822,1823,1824,1825,1826,1827,1820,1821,1822,1823,1824,1825,1826,1827,1820,1821,1822,1823,1824,1825,1826,1827,
1852,1853,1854,1855,1856,1857,1851,1852,1853,1854,1855,1856,1857,1850,1851,1852,1853,1854,1855,1856,1857,1850,1851,1852,1853,1854,1855,1856,1857,1850,1851,1852,1853,1854,1855,1856,1857,1850,1851,1852,1853,1854,1855,1856,1857,1850,1851,1852,1853,1854,1855,1856,1857,1850,1851,1852,1853,1854,1855,1856,1857,1250,1251,1252,1253,1254,1255,1256,1257,1258,1259,1260,1262,1263,1264,1265,1266,1267,1268,1269,1270,1271,1272,1273,1274,1275,1276,1277,1278,1279,1850,1851,1852,1853,1854,1855,1856,1857,1854,1855,1856,1857,1850,1851,1852,1853,1854,1855,1856,1857,1850,1851,1852,1853,1854,1855,1856,1857,1850,1851,1852,1853,1854,1855,1856,1857,1850,1851,1852,1853,1854,1855,1856,1857,1850,1851,1852,1853,1854,1855,1856,1857,1850,1851,1852,1853,1854,1855,1856,1857,
1882,1883,1884,1885,1886,1887,1881,1882,1883,1884,1885,1886,1887,1880,1881,1882,1883,1884,1885,1886,1887,1880,1881,1882,1883,1884,1885,1886,1887,1880,1881,1882,1883,1884,1885,1886,1887,1880,1881,1882,1883,1884,1885,1886,1887,1880,1881,1882,1883,1884,1885,1886,1887,1880,1881,1882,1883,1884,1885,1886,1887,1280,1281,1282,1283,1284,1285,1286,1287,1288,1289,1290,1292,1293,1294,1295,1296,1297,1298,1299,1300,1301,1302,1303,1304,1305,1306,1307,1308,1309,1880,1881,1882,1883,1884,1885,1886,1887,1884,1885,1886,1887,1880,1881,1882,1883,1884,1885,1886,1887,1880,1881,1882,1883,1884,1885,1886,1887,1880,1881,1882,1883,1884,1885,1886,1887,1880,1881,1882,1883,1884,1885,1886,1887,1880,1881,1882,1883,1884,1885,1886,1887,1880,1881,1882,1883,1884,1885,1886,1887,
1912,1913,1914,1915,1916,1917,1911,1912,1913,1914,1915,1916,1917,1910,1911,1912,1913,1914,1915,1916,1917,1910,1911,1912,1913,1914,1915,1916,1917,1910,1911,1912,1913,1914,1915,1916,1917,1910,1911,1912,1913,1914,1915,1916,1917,1910,1911,1912,1913,1914,1915,1916,1917,1910,1911,1912,1913,1914,1915,1916,1917,1310,1311,1312,1313,1314,1315,1316,1317,1318,1319,1320,1322,1323,1324,1325,1326,1327,1328,1329,1330,1331,1332,1333,1334,1335,1336,1337,1338,1339,1910,1911,1912,1913,1914,1915,1916,1917,1914,1915,1916,1917,1910,1911,1912,1913,1914,1915,1916,1917,1910,1911,1912,1913,1914,1915,1916,1917,1910,1911,1912,1913,1914,1915,1916,1917,1910,1911,1912,1913,1914,1915,1916,1917,1910,1911,1912,1913,1914,1915,1916,1917,1910,1911,1912,1913,1914,1915,1916,1917,
1942,1943,1944,1945,1946,1947,1941,1942,1943,1944,1945,1946,1947,1940,1941,1942,1943,1944,1945,1946,1947,1940,1941,1942,1943,1944,1945,1946,1947,1940,1941,1942,1943,1944,1945,1946,1947,1940,1941,1942,1943,1944,1945,1946,1947,1940,1941,1942,1943,1944,1945,1946,1947,1940,1941,1942,1943,1944,1945,1946,1947,1340,1341,1342,1343,1344,1345,1346,1347,1348,1349,1350,1352,1353,1354,1355,1356,1357,1358,1359,1360,1361,1362,1363,1364,1365,1366,1367,1368,1369,1940,1941,1942,1943,1944,1945,1946,1947,1944,1945,1946,1947,1940,1941,1942,1943,1944,1945,1946,1947,1940,1941,1942,1943,1944,1945,1946,1947,1940,1941,1942,1943,1944,1945,1946,1947,1940,1941,1942,1943,1944,1945,1946,1947,1940,1941,1942,1943,1944,1945,1946,1947,1940,1941,1942,1943,1944,1945,1946,1947,
16,16,16,16,16,16,16,1972,1973,1974,1975,1976,1977,1970,1971,1972,1973,1974,1975,1976,1977,1970,1971,1972,1973,1974,1975,1976,1977,1970,1971,1972,1973,1974,1975,1976,1977,1970,1971,1972,1973,1974,1975,1976,1977,1970,1971,1972,1973,1974,1975,1976,1977,1970,1971,1972,1973,1974,1975,1976,1977,1370,1371,1372,1373,1374,1375,1376,1377,1378,1379,1380,1382,1383,1384,1385,1386,1387,1388,1389,1390,1391,1392,1393,1394,1395,1396,1397,1398,1399,1970,1971,1972,1973,1974,1975,1976,1977,1974,1975,1976,1977,1970,1971,1972,1973,1974,1975,1976,1977,1970,1971,1972,1973,1974,1975,1976,1977,1970,1971,1972,1973,1974,1975,1976,1977,1970,1971,1972,1973,1974,1975,1976,1977,1970,1971,1972,1973,1974,1975,1976,1977,1970,16,16,16,16,16,16,16,
16,16,16,16,16,16,16,1820,1821,1822,1823,1824,1825,1826,1827,1822,1823,1824,1825,1826,1827,1820,1821,1822,1823,1824,1825,1826,1827,1820,1821,1822,1823,1824,1825,1826,1827,1820,1821,1822,1823,1824,1825,1826,1827,1820,1821,1822,1823,1824,1825,1826,1827,1820,1821,1822,1823,1824,1825,1826,1827,1400,1401,1402,1403,1404,1405,1406,1407,1408,1409,1410,1412,1413,1414,1415,1416,1417,1418,1419,1420,1421,1422,1423,1424,1425,1426,1427,1428,1429,1820,1821,1822,1823,1824,1825,1826,1827,1820,1821,1822,1823,1824,1825,1826,1827,1820,1821,1822,1823,1824,1825,1826,1827,1820,1821,1822,1823,1824,1825,1826,1827,1820,1821,1822,1823,1824,1825,1826,1827,1820,1821,1822,1823,1824,1825,1826,1827,1820,1821,1822,1823,1824,16,16,16,16,16,16,16,
16,16,16,16,16,16,16,16,16,16,1824,1825,1826,1827,16,1852,1853,1854,1855,1856,1857,1850,1851,1852,1853,1854,1855,1856,1857,1850,1851,1852,1853,1854,1855,1856,1857,1850,1851,1852,1853,1854,1855,1856,1857,1850,1851,1852,1853,1854,1855,1856,1857,1850,1851,1852,1853,1854,1855,1856,1857,1430,1431,1432,1433,1434,1435,1436,1437,1438,1439,1440,1442,1443,1444,1445,1446,1447,1448,1449,1450,1451,1452,1453,1454,1455,1456,1457,1458,1854,1850,1851,1852,1853,1854,1855,1856,1857,1850,1851,1852,1853,1854,1855,1856,1857,1850,1851,1852,1853,1854,1855,1856,1857,1850,1851,1852,1853,1854,1855,1856,1857,1850,1851,1852,1853,1854,1855,1856,1857,1850,1851,1852,1853,1854,16,1856,1857,1850,1851,16,16,16,16,16,16,16,16,16,16,
16,16,16,16,16,16,16,16,16,16,1854,1855,1856,1857,16,1882,1883,1884,1885,1886,1887,1880,1881,1882,1883,1884,1885,1886,1887,1880,1881,1882,1883,1884,1885,1886,1887,1880,1881,1882,1883,1884,1885,1886,1887,1880,1881,1882,1883,1884,1885,1886,1887,1880,1881,1882,1883,1884,1885,1886,1887,1460,1461,1462,1463,1464,1465,1466,1467,1468,1469,1470,1472,1473,1474,1475,1476,1477,1478,1479,1480,1481,1482,1483,1484,1485,1486,1487,1488,1489,1880,1881,1882,1883,1884,1885,1886,1887,1880,1881,1882,1883,1884,1885,1886,1887,1880,1881,1882,1883,1884,1885,1886,1887,1880,1881,1882,1883,1884,1885,1886,1887,1880,1881,1882,1883,1884,1885,1886,1887,1880,1881,1882,1883,1884,16,1886,1887,1880,1881,16,16,16,16,16,16,16,16,16,16,
16,16,16,16,16,16,16,16,16,16,1884,1885,1886,1887,16,16,16,16,16,16,16,16,16,1912,1913,1914,1915,1916,1917,1910,1911,1912,1913,1914,1915,1916,1917,1910,1911,1912,1913,1914,1915,1916,1917,1910,1911,1912,1913,1914,1915,1916,1917,1910,1911,1912,1913,1914,1915,1916,1917,1490,1491,1492,1493,1494,1495,1496,1497,1498,1499,1500,1502,1503,1504,1505,1506,1507,1508,1509,1510,1511,1512,1513,1514,1515,1516,1517,1518,1519,1910,1911,1912,1913,1914,1915,1916,1917,1910,1911,1912,1913,1914,1915,1916,1917,1910,1911,1912,1913,1914,1915,1916,1917,1910,1911,1912,1913,1914,1915,1916,1917,1910,1911,1912,1913,1914,16,16,16,16,16,16,16,16,16,1916,1917,1910,1911,16,16,16,16,16,16,16,16,16,16,
16,16,16,16,16,16,16,16,16,16,1914,1915,1916,1917,16,16,16,16,16,16,16,16,16,1942,1943,1944,1945,1946,1947,1940,1941,1942,1943,1944,1945,1946,1947,1940,1941,1942,1943,1944,1945,1946,1947,1940,1941,1942,1943,1944,1945,1946,1947,1940,1941,1942,1943,1944,1945,1946,1947,1520,1521,1522,1523,1524,1525,1526,1527,1528,1529,1530,1532,1533,1534,1535,1536,1537,1538,1539,1540,1541,1542,1543,1544,1545,1546,1547,1548,1549,1940,1941,1942,1943,1944,1945,1946,1947,1940,1941,1942,1943,1944,1945,1946,1947,1940,1941,1942,1943,1944,1945,1946,1947,1940,1941,1942,1943,1944,1945,1946,1947,1940,1941,1942,1943,1944,16,16,16,16,16,16,16,16,16,1946,1947,1940,1941,16,16,16,16,16,16,16,16,16,16,
16,16,16,16,16,16,16,16,16,16,1944,1945,1946,1947,16,16,16,16,16,16,16,16,16,16,16,16,16,16,16,16,16,1972,1973,1974,1975,1976,1977,1970,1971,1972,1973,1974,1975,1976,1977,1970,1971,1972,1973,1974,1975,1976,1977,1970,1971,1972,1973,1974,1975,1976,1977,1550,1551,1552,1553,1554,1555,1556,1557,1558,1559,1560,1562,1563,1564,16,1566,1567,1568,1569,1570,1571,1572,1573,1574,1575,1576,1577,1578,1579,1970,1971,1972,1973,1974,1975,1976,1977,1970,1971,1972,1973,1974,1975,1976,1977,1970,1971,1972,1973,1974,1975,1976,1977,1970,1971,1972,1973,1974,16,16,16,16,16,16,16,16,16,16,16,16,16,16,16,16,16,1976,1977,1970,1971,16,16,16,16,16,16,16,16,16,16,
16,16,16,16,16,16,16,16,16,16,1974,1975,1976,1977,16,16,16,16,16,16,16,16,16,16,16,16,16,16,16,16,16,0,0,0,0,0,0,0,0,0,1943,1944,0,0,0,0,0,0,0,0,0,0,0,0,0,0,0,0,0,16,1580,1580,1581,1582,1583,1584,1585,1586,1587,1588,1589,1590,1592,1593,16,16,16,1597,1598,1599,1600,1601,1602,1603,1604,1605,1606,1607,1608,1609,0,16,0,0,0,0,0,0,0,0,0,0,0,0,0,0,0,1820,1821,1822,1823,1824,1825,1826,1827,16,16,16,16,16,16,16,16,16,16,16,16,16,16,16,16,16,16,16,16,16,1820,1821,1822,1823,16,16,16,16,16,16,16,16,16,16
</data>
 </layer>
 <layer name="probs" width="150" height="17">
  <data encoding="csv">
0,0,0,0,0,0,0,0,0,0,0,0,0,0,0,0,0,0,0,0,0,0,0,0,0,0,0,0,0,0,0,0,0,0,0,0,0,0,0,0,0,0,0,0,0,0,0,0,0,0,0,0,0,0,0,0,0,0,0,0,0,0,0,0,0,0,0,0,0,0,0,0,0,0,0,0,0,0,0,0,0,0,0,0,0,0,0,0,0,0,0,0,0,0,0,0,0,0,0,0,0,0,0,0,0,0,0,0,0,0,0,0,0,0,0,0,0,0,0,0,0,0,0,0,0,0,0,0,0,0,0,0,0,0,0,0,0,0,0,0,0,0,0,0,0,0,0,0,0,0,
0,0,0,0,0,0,0,0,0,0,0,0,0,0,0,1125,0,0,0,0,0,1125,0,0,0,0,0,0,0,0,0,0,0,0,0,0,0,0,0,0,0,0,0,0,0,0,0,0,0,0,0,0,0,0,0,0,0,0,0,0,0,0,0,0,0,0,0,0,0,0,0,0,0,0,0,0,0,0,0,0,0,0,0,0,0,0,0,0,0,0,0,0,0,0,0,0,0,0,0,0,0,0,0,0,0,0,0,0,0,0,0,0,0,0,0,0,0,0,0,0,0,0,0,0,0,0,0,0,1125,0,0,0,0,0,1125,0,0,0,0,0,0,0,0,0,0,0,0,0,0,0,
0,0,0,0,0,0,0,0,0,0,0,0,0,0,0,0,0,0,0,0,0,0,0,0,0,0,0,0,0,0,0,0,0,0,0,0,0,0,0,0,0,0,0,0,0,0,0,0,0,0,0,0,0,0,0,0,0,0,0,0,0,0,0,0,0,0,0,0,0,0,0,0,0,0,0,0,0,0,0,0,0,0,0,0,0,0,0,0,0,0,0,0,0,0,0,0,0,0,0,0,0,0,0,0,0,0,0,0,0,0,0,0,0,0,0,0,0,0,0,0,0,0,0,0,0,0,0,0,0,0,0,0,0,0,0,0,0,0,0,0,0,0,0,0,0,0,0,0,0,0,
0,0,0,0,0,0,0,0,0,0,0,0,0,0,0,0,0,1068,1069,1070,0,0,0,0,0,0,0,0,0,0,0,0,0,0,0,0,0,0,0,0,0,0,0,0,0,0,0,0,0,0,0,0,0,0,0,0,0,0,0,0,0,0,0,0,0,0,0,0,0,0,0,0,0,0,0,0,0,0,0,0,0,0,0,0,0,0,0,0,0,0,0,0,0,0,0,0,0,0,0,0,0,0,0,0,0,0,0,0,0,0,0,0,0,0,0,0,0,0,0,0,0,0,0,0,0,0,0,0,0,0,1065,1066,1067,0,0,0,0,0,0,0,0,0,0,0,0,0,0,0,0,0,
0,0,0,0,0,0,0,0,0,0,0,0,0,0,0,0,0,1081,1082,1083,0,0,0,0,0,0,0,0,0,0,0,0,0,0,0,0,0,0,0,0,0,0,0,0,0,0,0,0,0,0,0,0,0,0,0,0,0,0,0,0,0,0,1099,0,0,0,0,0,0,0,0,0,0,0,0,0,0,0,0,0,0,0,0,0,0,0,0,0,1099,0,0,0,0,0,0,0,0,0,0,0,0,0,0,0,0,0,0,0,0,0,0,0,0,0,0,0,0,0,0,0,0,0,0,0,0,0,0,0,0,0,1078,1079,1080,0,0,0,0,0,0,0,0,0,0,0,0,0,0,0,0,0,
0,0,1099,1058,1059,1097,1098,1099,0,0,0,0,0,0,0,0,0,1094,1095,1096,0,0,0,0,0,0,0,0,0,0,0,0,0,0,0,0,0,0,0,0,0,0,0,0,0,0,0,0,0,0,0,0,0,0,0,0,0,0,0,0,0,0,1112,0,0,0,0,0,0,0,0,0,0,0,0,0,0,0,0,0,0,0,0,0,0,0,0,0,1112,0,0,0,0,0,0,0,0,0,0,0,0,0,0,0,0,0,0,0,0,0,0,0,0,0,0,0,0,0,0,0,0,0,0,0,0,0,0,0,0,0,1091,1092,1093,0,0,0,0,0,0,0,0,0,1099,1097,1098,1058,1059,1099,0,0,
0,0,1112,1071,1072,1110,1111,1112,0,0,0,0,0,0,0,0,0,1107,1108,1109,0,0,0,0,0,0,0,0,0,0,0,0,0,0,0,0,0,0,0,0,0,0,0,0,0,0,0,0,0,0,0,0,0,0,0,0,0,1058,1059,0,0,0,0,0,0,0,0,0,0,0,0,0,0,0,0,0,0,0,0,0,0,0,0,0,0,0,0,0,0,0,0,0,1058,1059,0,0,0,0,0,0,0,0,0,0,0,0,0,0,0,0,0,0,0,0,0,0,0,0,0,0,0,0,0,0,0,0,0,0,0,0,1104,1105,1106,0,0,0,0,0,0,0,0,0,1112,1110,1111,1071,1072,1112,0,0,
0,0,0,1084,1085,1123,1124,0,0,0,0,0,0,0,0,0,0,1120,1121,1122,0,0,0,0,0,0,0,0,0,0,0,0,0,0,0,0,0,0,0,0,0,0,0,0,0,0,0,0,0,0,0,0,0,0,0,0,0,1071,1072,0,0,0,0,0,0,0,0,0,0,0,0,0,0,0,0,0,0,0,0,0,0,0,0,0,0,0,0,0,0,0,0,0,1071,1072,0,0,0,0,0,0,0,0,0,0,0,0,0,0,0,0,0,0,0,0,0,0,0,0,0,0,0,0,0,0,0,0,0,0,0,0,1117,1118,1119,0,0,0,0,0,0,0,0,0,0,1123,1124,1084,1085,0,0,0,
0,0,0,0,0,0,0,0,0,0,0,0,0,0,0,0,0,0,0,0,0,0,0,0,0,0,0,0,0,0,0,0,0,0,0,0,0,1125,0,0,0,0,0,0,1125,0,0,0,0,0,0,0,0,0,0,0,0,1084,1085,0,0,0,1068,1069,1070,0,0,0,0,0,0,0,0,0,0,0,0,0,0,0,0,0,0,0,0,0,1065,1066,1067,0,0,0,1084,1085,0,0,0,0,0,0,0,0,0,0,0,0,1125,0,0,0,0,0,0,1125,0,0,0,0,0,0,0,0,0,0,0,0,0,0,0,0,0,0,0,0,0,0,0,0,0,0,0,0,0,0,0,0,0,0,0,0,
0,0,0,0,0,0,0,0,0,0,0,0,0,0,0,0,1062,1063,1100,0,0,0,0,0,0,0,0,0,0,0,0,0,0,0,0,0,0,0,0,0,0,0,0,0,0,0,0,0,0,0,0,0,0,0,0,0,0,0,0,0,0,0,1081,1082,1083,0,0,0,0,0,0,0,0,0,0,0,0,0,0,0,0,0,0,0,0,0,1078,1079,1080,0,0,0,0,0,0,0,0,0,0,0,0,0,0,0,0,0,0,0,0,0,0,0,0,0,0,0,0,0,0,0,0,0,0,0,0,0,0,0,0,0,0,1100,1062,1063,0,0,0,0,0,0,0,0,0,0,0,0,0,0,0,0,
0,0,0,0,0,0,0,0,0,0,0,0,0,0,0,0,1075,1076,1113,0,0,0,0,0,0,0,0,0,0,0,0,0,0,0,0,0,0,0,0,0,0,0,0,0,0,0,0,0,0,0,0,0,0,0,0,0,0,0,0,0,0,0,1094,1095,1096,0,0,0,0,0,0,0,0,0,0,0,0,0,0,0,0,0,0,0,0,0,1091,1092,1093,0,0,0,0,0,0,0,0,0,0,0,0,0,0,0,0,0,0,0,0,0,0,0,0,0,0,0,0,0,0,0,0,0,0,0,0,0,0,0,0,0,0,1113,1075,1076,0,0,0,0,0,0,0,0,0,0,0,0,0,0,0,0,
0,0,0,0,0,0,0,0,0,0,0,0,0,0,0,0,1088,1089,1126,0,0,0,0,0,0,1099,0,0,0,0,0,0,0,0,0,0,0,0,0,0,0,0,0,0,0,0,0,0,0,0,0,0,0,0,0,0,0,0,0,0,0,0,1107,1108,1109,0,0,0,0,0,0,0,0,0,1101,1102,1103,0,0,0,0,0,0,0,0,0,1104,1105,1106,0,0,0,0,0,0,0,0,0,0,0,0,0,0,0,0,0,0,0,0,0,0,0,0,0,0,0,0,0,0,0,0,0,0,0,1099,0,0,0,0,0,0,1126,1088,1089,0,0,0,0,0,0,0,0,0,0,0,0,0,0,0,0,
0,0,0,0,0,0,0,0,0,0,0,0,0,0,0,0,0,0,0,0,0,0,0,0,1086,1112,0,0,0,0,0,0,0,0,0,0,0,0,0,0,0,0,0,0,0,0,0,0,0,0,0,1125,0,0,1125,0,0,0,0,1099,0,0,1120,1121,1122,0,0,0,0,0,0,0,0,1100,1114,1115,1116,1100,0,0,0,0,0,0,0,0,1117,1118,1119,0,0,1099,0,0,0,0,1125,0,0,1125,0,0,0,0,0,0,0,0,0,0,0,0,0,0,0,0,0,0,0,0,0,0,0,0,1112,1086,0,0,0,0,0,0,0,0,0,0,0,0,0,0,0,0,0,0,0,0,0,0,0,0,
0,0,0,0,0,0,0,0,0,0,0,0,0,0,0,0,0,0,0,0,0,0,0,0,1086,1087,0,0,0,0,0,0,1029,1030,1031,0,1099,0,0,0,0,0,0,0,0,0,0,0,1062,1063,0,0,0,0,0,0,0,0,0,1112,0,1062,1063,0,0,0,0,0,0,0,0,1097,1098,1113,1127,1128,1129,1113,1097,1098,0,0,0,0,0,0,0,0,1062,1063,0,1112,0,0,0,0,0,0,0,0,0,1062,1063,0,0,0,0,0,0,0,0,0,0,1099,0,1029,1030,1031,0,0,0,0,0,0,1086,1086,0,0,0,0,0,0,0,0,0,0,0,0,0,0,0,0,0,0,0,0,0,0,0,0,
0,0,0,0,0,0,0,0,0,0,0,0,0,0,0,0,0,0,0,0,0,0,0,0,0,0,0,0,0,0,0,0,1042,1043,1044,0,1112,0,0,0,0,0,0,0,0,0,0,0,1075,1076,0,0,0,0,0,1036,1037,1038,0,0,0,1075,1076,0,0,0,0,0,0,0,0,1110,1111,1126,0,0,0,1126,1110,1111,0,0,0,0,0,0,0,0,1075,1076,0,0,0,1036,1037,1038,0,0,0,0,0,1075,1076,0,0,0,0,0,0,0,0,0,0,1112,0,1042,1043,1044,0,0,0,0,0,0,0,0,0,0,0,0,0,0,0,0,0,0,0,0,0,0,0,0,0,0,0,0,0,0,0,0,
0,0,0,0,0,0,0,0,0,0,0,0,0,0,0,0,0,0,0,0,0,0,0,0,0,0,0,0,0,0,0,0,1055,1056,1057,0,0,0,0,0,0,0,0,0,0,0,0,0,1088,1089,0,0,0,0,0,1049,1050,1051,0,0,0,1088,1089,0,0,0,0,0,0,0,0,1123,1124,0,0,0,0,0,1123,1124,0,0,0,0,0,0,0,0,1088,1089,0,0,0,1049,1050,1051,0,0,0,0,0,1088,1089,0,0,0,0,0,0,0,0,0,0,0,0,1055,1056,1057,0,0,0,0,0,0,0,0,0,0,0,0,0,0,0,0,0,0,0,0,0,0,0,0,0,0,0,0,0,0,0,0,
0,0,0,0,0,0,0,0,0,0,0,0,0,0,0,0,0,0,0,0,0,0,0,0,0,0,0,0,0,0,0,0,0,0,0,0,0,0,0,0,0,0,0,0,0,0,0,0,0,0,0,0,0,0,0,0,0,0,0,0,0,0,0,0,0,0,0,0,0,0,0,0,0,0,0,0,0,0,0,0,0,0,0,0,0,0,0,0,0,0,0,0,0,0,0,0,0,0,0,0,0,0,0,0,0,0,0,0,0,0,0,0,0,0,0,0,0,0,0,0,0,0,0,0,0,0,0,0,0,0,0,0,0,0,0,0,0,0,0,0,0,0,0,0,0,0,0,0,0,0
</data>
 </layer>
 <layer name="walls" width="150" height="17">
  <data encoding="csv">
38,39,38,39,37,38,37,39,37,37,16,38,39,38,39,38,38,38,38,39,39,37,37,38,37,38,38,39,38,37,38,38,38,39,37,37,38,37,37,39,39,37,37,38,38,39,38,38,38,38,38,39,38,38,39,38,38,38,39,37,37,37,37,38,38,38,37,37,37,37,38,37,38,37,39,37,39,37,38,37,38,37,39,37,39,37,37,39,37,38,37,37,39,39,37,39,39,37,38,37,37,37,37,37,38,37,37,37,37,38,37,37,39,38,37,39,39,37,37,39,38,37,38,38,39,38,37,39,38,37,38,39,39,38,38,39,38,38,39,16,37,37,37,37,37,37,38,39,38,37,
0,0,0,0,0,0,0,0,0,0,16,0,0,0,0,0,0,0,0,0,0,0,0,0,0,0,0,0,0,0,0,0,0,0,0,0,0,0,0,0,0,0,0,0,0,0,0,0,0,0,0,0,0,0,0,0,0,0,0,0,0,0,0,0,0,0,0,0,0,0,0,0,0,0,0,0,0,0,0,0,0,0,0,0,0,0,0,0,0,0,0,0,0,0,0,0,0,0,0,0,0,0,0,0,0,0,0,0,0,0,0,0,0,0,0,0,0,0,0,0,0,0,0,0,0,0,0,0,0,0,0,0,0,0,0,0,0,0,0,16,0,0,0,0,0,0,0,0,0,0,
0,0,20,21,20,21,0,0,0,0,39,0,0,0,0,20,21,21,21,21,21,21,0,0,0,0,0,0,0,0,0,0,0,0,0,0,0,0,0,0,0,0,0,0,0,0,0,0,0,0,0,0,0,0,0,0,0,0,0,0,0,0,0,0,0,0,0,0,0,0,0,0,0,0,0,0,0,0,0,0,0,0,0,0,0,0,0,0,0,0,0,0,0,0,0,0,0,0,0,0,0,0,0,0,0,0,0,0,0,0,0,0,0,0,0,0,0,0,0,0,0,0,0,0,0,0,0,0,21,18,19,19,19,21,20,0,0,0,0,39,0,0,0,0,19,20,19,20,0,0,
0,0,0,0,0,0,0,0,0,0,0,0,0,0,0,0,0,0,0,0,0,0,0,0,0,0,0,0,0,0,0,0,0,0,0,0,0,0,0,0,0,0,0,0,0,0,0,0,0,0,0,0,0,0,0,0,0,0,0,0,0,0,0,0,0,0,0,0,0,0,0,0,0,0,0,0,0,0,0,0,0,0,0,0,0,0,0,0,0,0,0,0,0,0,0,0,0,0,0,0,0,0,0,0,0,0,0,0,0,0,0,0,0,0,0,0,0,0,0,0,0,0,0,0,0,0,0,0,0,0,0,0,0,0,0,0,0,0,0,0,0,0,0,0,0,0,0,0,0,0,
0,0,0,0,0,0,0,0,0,0,0,0,0,0,0,0,0,0,0,0,0,0,0,0,0,0,0,0,0,0,0,0,0,0,0,0,0,0,0,0,0,0,0,0,0,0,0,0,0,0,0,0,0,0,0,0,0,0,0,0,0,0,0,0,0,0,0,0,0,0,0,0,0,0,0,0,0,0,0,0,0,0,0,0,0,0,0,0,0,0,0,0,0,0,0,0,0,0,0,0,0,0,0,0,0,0,0,0,0,0,0,0,0,0,0,0,0,0,0,0,0,0,0,0,0,0,0,0,0,0,0,0,0,0,0,0,0,0,0,0,0,0,0,0,0,0,0,0,0,0,
0,0,0,0,0,0,0,0,0,0,0,0,0,0,0,0,0,0,0,0,0,0,0,0,0,0,0,0,0,0,0,0,0,0,0,0,0,0,0,0,0,0,0,0,0,0,0,0,0,0,0,0,0,0,0,0,0,0,0,0,0,0,0,0,0,0,0,0,0,0,0,0,0,0,0,0,0,0,0,0,0,0,0,0,0,0,0,0,0,0,0,0,0,0,0,0,0,0,0,0,0,0,0,0,0,0,0,0,0,0,0,0,0,0,0,0,0,0,0,0,0,0,0,0,0,0,0,0,0,0,0,0,0,0,0,0,0,0,0,0,0,0,0,0,0,0,0,0,0,0,
0,0,0,0,0,0,0,0,0,0,0,0,0,0,0,0,0,0,0,0,0,0,0,0,0,0,0,0,0,0,0,0,0,0,0,0,0,0,0,0,0,0,0,0,0,0,0,0,0,0,0,0,0,0,0,0,0,0,0,0,0,0,0,0,0,0,0,0,0,0,0,0,0,0,0,0,0,0,0,0,0,0,0,0,0,0,0,0,0,0,0,0,0,0,0,0,0,0,0,0,0,0,0,0,0,0,0,0,0,0,0,0,0,0,0,0,0,0,0,0,0,0,0,0,0,0,0,0,0,0,0,0,0,0,0,0,0,0,0,0,0,0,0,0,0,0,0,0,0,0,
0,0,0,0,0,0,0,0,0,0,0,0,0,0,0,0,0,0,0,0,0,0,0,0,0,0,0,0,0,0,0,0,0,0,0,0,0,0,0,0,0,0,0,0,0,0,0,19,18,0,0,0,20,18,0,0,0,0,0,0,0,18,18,19,20,21,0,0,0,0,0,0,0,0,0,0,0,0,0,0,0,0,0,0,0,18,19,20,21,20,0,0,0,0,0,0,0,21,21,0,0,0,19,20,0,0,0,0,0,0,0,0,0,0,0,0,0,0,0,0,0,0,0,0,0,0,0,0,0,0,0,0,0,0,0,0,0,0,0,0,0,0,0,0,0,0,0,0,0,0,
7,8,7,8,8,8,9,9,0,0,0,0,0,0,0,0,0,0,0,0,18,19,20,21,0,0,0,20,0,0,0,21,19,0,0,0,0,0,0,0,0,0,0,0,0,0,0,0,0,0,0,0,0,0,0,0,0,0,0,0,0,0,0,0,0,0,0,0,0,0,0,0,0,0,0,0,0,0,0,0,0,0,0,0,0,0,0,0,0,0,0,0,0,0,0,0,0,0,0,0,0,0,0,0,0,0,0,0,0,0,0,0,0,0,0,0,0,20,21,0,0,0,20,0,0,0,19,21,18,20,0,0,0,0,0,0,0,0,0,0,0,0,8,8,7,8,9,7,9,8,
0,0,0,0,0,0,0,16,0,0,0,0,0,0,0,0,0,0,0,0,0,0,0,0,0,0,0,0,0,0,0,0,0,0,0,0,0,19,21,0,0,0,0,18,20,0,0,0,0,0,0,0,0,0,0,0,0,19,18,0,0,0,0,0,0,0,0,0,0,0,0,0,2,11,11,11,11,11,6,0,0,0,0,0,0,0,0,0,0,0,0,0,21,21,0,0,0,0,0,0,0,0,0,0,0,0,18,20,0,0,0,0,18,21,0,0,0,0,0,0,0,0,0,0,0,0,0,0,0,0,0,0,0,0,0,0,0,0,0,0,0,0,16,0,0,0,0,0,0,0,
0,0,0,0,0,0,0,16,7,7,8,0,0,8,9,8,0,0,0,0,0,0,0,0,0,0,0,0,0,0,0,0,0,0,0,0,0,0,0,0,0,0,0,0,0,0,0,0,0,0,0,0,0,0,0,0,0,0,0,0,0,0,0,0,0,0,2,6,0,0,0,0,0,0,0,0,0,0,0,0,0,0,0,2,6,0,0,0,0,0,0,0,0,0,0,0,0,0,0,0,0,0,0,0,0,0,0,0,0,0,0,0,0,0,0,0,0,0,0,0,0,0,0,0,0,0,0,0,0,0,0,0,0,0,8,9,7,0,0,7,7,9,16,0,0,0,0,0,0,0,
0,0,0,0,0,0,0,0,0,0,16,0,0,16,0,16,0,0,0,0,0,0,0,0,0,0,0,0,0,0,0,0,0,0,20,0,0,0,0,0,0,0,0,0,0,0,0,0,0,0,0,0,0,0,0,0,0,0,0,0,0,0,0,0,0,0,0,0,0,0,0,0,0,0,0,0,0,0,0,0,0,0,0,0,0,0,0,0,0,0,0,0,0,0,0,0,0,0,0,0,0,0,0,0,0,0,0,0,0,0,0,0,0,0,0,20,0,0,0,0,0,0,0,0,0,0,0,0,0,0,0,0,0,0,16,0,16,0,0,16,0,0,0,0,0,0,0,0,0,0,
0,0,0,0,0,0,0,0,0,0,16,0,0,16,0,16,7,7,7,8,7,7,9,9,0,0,0,0,0,0,0,0,0,0,0,0,0,0,0,0,0,0,0,0,0,0,0,0,0,0,0,0,0,0,0,0,0,0,0,0,0,0,0,0,0,0,0,0,0,0,0,0,0,0,0,0,0,0,0,0,0,0,0,0,0,0,0,0,0,0,0,0,0,0,0,0,0,0,0,0,0,0,0,0,0,0,0,0,0,0,0,0,0,0,0,0,0,0,0,0,0,0,0,0,0,0,9,8,9,7,8,8,9,7,16,0,16,0,0,16,0,0,0,0,0,0,0,0,0,0,
0,0,0,0,0,0,0,0,0,0,16,0,0,16,0,0,0,0,0,0,0,0,0,16,0,0,0,0,0,0,0,0,0,0,0,0,0,0,0,0,0,0,0,0,0,0,20,0,0,0,0,20,21,19,19,0,0,0,0,0,0,0,0,0,0,0,0,0,2,11,6,0,0,0,0,0,0,0,0,0,2,11,6,0,0,0,0,0,0,0,0,0,0,0,0,0,20,20,19,18,0,0,0,0,19,0,0,0,0,0,0,0,0,0,0,0,0,0,0,0,0,0,0,0,0,0,16,0,0,0,0,0,0,0,0,0,16,0,0,16,0,0,0,0,0,0,0,0,0,0,
0,0,0,0,0,0,0,0,0,0,16,0,0,16,0,0,0,0,0,0,0,0,0,16,8,7,7,8,9,8,8,8,0,0,0,0,0,0,0,0,0,0,0,0,0,0,0,0,0,0,0,0,0,0,0,0,0,0,0,0,0,0,0,0,0,0,0,0,0,0,0,0,0,0,2,3,6,0,0,0,0,0,0,0,0,0,0,0,0,0,0,0,0,0,0,0,0,0,0,0,0,0,0,0,0,0,0,0,0,0,0,0,0,0,0,0,0,0,9,7,8,8,8,9,7,8,16,0,0,0,0,0,0,0,0,0,16,0,0,16,0,0,0,0,0,0,0,0,0,0,
0,0,0,0,0,0,0,0,0,0,16,0,0,16,0,0,0,0,0,0,0,0,0,0,0,0,0,0,0,0,0,16,0,0,0,0,0,0,0,0,0,0,0,0,0,0,0,0,0,0,0,0,0,0,0,0,0,0,7,8,9,0,0,0,0,0,0,0,0,0,0,0,0,8,16,0,16,8,0,0,0,0,0,0,0,0,0,0,0,0,8,8,8,0,0,0,0,0,0,0,0,0,0,0,0,0,0,0,0,0,0,0,0,0,0,0,0,0,16,0,0,0,0,0,0,0,0,0,0,0,0,0,0,0,0,0,16,0,0,16,0,0,0,0,0,0,0,0,0,0,
0,0,0,0,0,0,0,0,0,0,16,0,0,16,0,0,0,0,0,0,0,0,0,0,0,0,0,0,0,0,0,16,8,8,9,8,7,9,9,7,0,0,9,7,8,7,7,7,9,9,9,8,8,9,9,8,9,7,16,0,16,7,7,7,8,8,7,8,7,9,8,9,7,16,0,0,0,16,9,9,9,7,9,9,9,8,8,9,9,9,16,0,16,9,8,7,8,7,9,9,8,8,9,9,9,8,7,9,9,0,0,8,8,9,7,7,8,9,16,0,0,0,0,0,0,0,0,0,0,0,0,0,0,0,0,0,16,0,0,16,0,0,0,0,0,0,0,0,0,0
</data>
 </layer>
 <objectgroup name="Players" offsetx="-36" offsety="-4">
  <object id="13" name="player1" type="player" gid="1" x="4398.18" y="242.06" width="64" height="128">
   <properties>
    <property name="acceleration" type="float" value="0.5"/>
    <property name="arrowgravity" type="float" value="1"/>
    <property name="arrowspeed" type="float" value="50"/>
    <property name="chargespeed" type="float" value="0.01"/>
    <property name="friction" type="float" value="0"/>
    <property name="gravity" type="float" value="1"/>
    <property name="jumpheight" type="float" value="20"/>
    <property name="maxarrowspeedmodifier" type="int" value="5000"/>
    <property name="maxspeed" type="float" value="12"/>
    <property name="minarrowspeedmodifier" type="int" value="1250"/>
    <property name="respawntime" type="int" value="3000"/>
   </properties>
  </object>
  <object id="14" name="player2" type="player" gid="1" x="5312.55" y="241.09" width="64" height="128">
   <properties>
    <property name="acceleration" type="float" value="0.1"/>
    <property name="arrowgravity" type="float" value="0.4"/>
    <property name="arrowspeed" type="float" value="10"/>
    <property name="chargespeed" type="float" value="0.01"/>
    <property name="friction" type="float" value="0"/>
    <property name="gravity" type="float" value="1"/>
    <property name="jumpheight" type="float" value="20"/>
    <property name="maxarrowspeedmodifier" type="int" value="5000"/>
    <property name="maxspeed" type="float" value="6"/>
    <property name="minarrowspeedmodifier" type="int" value="1250"/>
    <property name="respawntime" type="int" value="3000"/>
   </properties>
  </object>
 </objectgroup>
</map>
